
G48_forge = {
	slot = 1
	generic = no
	ai = yes
	potential = {
		tag = G48
	}
	has_country_shield = yes
	
	G48_found_the_forges = {
		icon = mission_machine_of_war
		required_missions = { }
		#position = 1
		
		provinces_to_highlight = {
			province_id = 2773
		}
		
		trigger = {
		    treasury = 200
			2773 = {
			    development = 15
				owned_by = ROOT
			}
		}
        
        effect = {
            add_treasury = -200
            2773 = {
		        add_permanent_province_modifier = {
					name = kherka_kherkan_forges_1
					duration = -1
				}
			}
		}
	}

    G48_increase_iron_production = {
		icon = mission_mechanical_mining
		required_missions = { G48_found_the_forges }
		position = 2
		
		provinces_to_highlight = {
			province_id = 2772
		}
		
		trigger = {
		    2772 = {
			    base_production = 10
				owned_by = ROOT
			}
		}

        effect = {
            add_country_modifier = {
				name = kherka_producing_iron
				duration = 7300 #20 years
			}
		}
	}
	
	G48_feed_the_forges = {
		icon = industrialized_rhineland
		required_missions = { G48_increase_iron_production }
		position = 3
		
		provinces_to_highlight = {
			province_id = 2773
		}
		
		trigger = {
			2773 = {
			    development = 25
				owned_by = ROOT
			}
			num_of_owned_provinces_with = {
		    value = 3
            trade_goods = iron
            base_production = 5		
		    }
			num_of_owned_provinces_with = {
		    value = 3
            trade_goods = copper
            base_production = 5
		    }
		}
		
		effect = {
		    2773 = {
			    hidden_effect = {
					remove_province_modifier = kherka_kherkan_forges_1
				}
		        add_permanent_province_modifier = {
					name = kherka_kherkan_forges_2
					duration = -1
				}
			}
		}
	}
	
	G48_guns_of_kherka = {
		icon = mission_recruit_streltsy
		required_missions = { G48_invite_gnomish_inventors }
		position = 5
	    
		trigger = {
		    weapons = 10
		}

        effect = {
            add_country_modifier = {
				name = kherka_guns_of_kherka
				duration = 18250 #50 years
			}
		}
	}
}

G48_misc = {
	slot = 2
	generic = no
	ai = yes
	potential = {
		tag = G48
	}
	has_country_shield = yes
	
	G48_prospect_chelion = {
		icon = mission_industria_sedera
		required_missions = { G48_expand_emerald_mines }
		position = 2
	    
		provinces_to_highlight = {
		    province_id = 2777
		}
		
		trigger = {
		    treasury = 200
		    2777 = {
			    owned_by = ROOT
				development = 10
			}
		}
		
		effect = {
		    add_treasury = -200
			2777 = {
			    change_trade_goods = gold
			}
		}
	}
	
	G48_alecandi_jewlery = {
		icon = centralized_empire
		required_missions = { G48_prospect_chelion }
		position = 3
		
		provinces_to_highlight = {
		    OR = {
	            province_id = 2776
	       		province_id = 2777
			}	
		}
		
		trigger = {
		    2776 = {
			    owned_by = ROOT
				development = 15
			}
			2777 = {
			    owned_by = ROOT
				development = 15
			}
		}

        effect = {
            add_treasury = 1000
            	add_country_modifier = {
				name = kherka_alecandi_jewlery
				duration = 9125 #25 years
			}
		}
	}
	
	G48_invite_gnomish_inventors = {
		icon = mission_science
		required_missions = { G48_feed_the_forges }
		position = 4
	
	    provinces_to_highlight = {
			province_id = 2773
		}
		
		trigger = {
		    treasury = 400
			2773 = {
			    owned_by = ROOT
			}	
			any_known_country = { 
			    culture_group = gnomish
				has_opinion = {
	                who = ROOT
	                value = 100
			    }
			}
		}
		
		effect = {
		    add_treasury = -400
			2773 = {
			    hidden_effect = {
					remove_province_modifier = kherka_kherkan_forges_2
				}
		        add_permanent_province_modifier = {
				    name = kherka_kherkan_forges_3
				    duration = -1
				}	
				add_gnomish_minority_size_effect = yes
			}
			add_country_modifier = {
				name = kherka_gnomish_inventors
				duration = 9125 #25 years
			}
			largest_increase_of_gnomish_tolerance_effect = yes
			
			hidden_effect = {
				change_variable = {
					which = gnomish_race_tolerance_ai
					value = 30
				}
			}
		}
	}
}

G48_prospect = {
	slot = 3
	generic = no
	ai = yes
	potential = {
		tag = G48
	}
	has_country_shield = yes
	
	G48_expand_emerald_mines = {
		icon = balance_the_estates
		required_missions = { }
		#position = 1
		
		provinces_to_highlight = {
		    province_id = 2776
		}
		
		trigger = {
		    2776 = {
			    owned_by = ROOT
				has_production_building_trigger = yes
			}
		}
		
		effect = {
		    add_country_modifier = {
				name = kherka_emerald_production
				duration = 7300 #20 years
		    }
	    }
	}
	
	G48_institute_of_prospectors = {
		icon = mission_dominate_the_mediterranean
		required_missions = { G48_prospect_chelion }
		position = 3
		
		provinces_to_highlight = {
		    province_id = 2776
		}
		
		trigger = {
		    treasury = 400
		    2776 = {
			    owned_by = ROOT
				has_courthouse_building_trigger = yes
			}
		}
		
		effect = {
		    add_treasury = -400
			set_country_flag = kherkan_prospectors
			custom_tooltip = kherka_institute_of_prospectors
		}
	}
	
	G48_the_foundries_of_south_aelantir = {
		icon = mission_rb_build_furnaces
		required_missions = { G48_invite_gnomish_inventors
		                      G48_the_barbarian_forge }
		position = 5
		
		provinces_to_highlight = {
		    OR = {
	            province_id = 2773
	       		province_id = 2666
			}	
		}
		
		trigger = {
		    2773 = {
			    owned_by = ROOT
				has_building = furnace
			}
			2666 = {
			    owned_by = ROOT
                has_building = furnace
			}
		}
		
		effect = {
            	add_country_modifier = {
				name = kherka_foundries_of_south_aelantir
				duration = -1
			}
		}
	}
	
}

G48_expansion1 = {
	slot = 4
	generic = no
	ai = yes
	potential = {
		tag = G48
	}
	has_country_shield = yes
	
	G48_war_with_the_merchants = {
		icon = mission_dethrone_the_rurikovichs
		required_missions = { G48_bolster_forces }
		position = 2
	    
		provinces_to_highlight = {
			OR = {
				province_id = 2738
				province_id = 2739
				province_id = 2775
			}
			NOT = {
				country_or_non_sovereign_subject_holds = ROOT
			}
		}
		
		trigger = {
			2738 = { country_or_non_sovereign_subject_holds = ROOT }
			2739 = { country_or_non_sovereign_subject_holds = ROOT }
			2775 = { country_or_non_sovereign_subject_holds = ROOT }
		}
		
		effect = {
		    add_dip_power = 50
		}	
	}
    
	G48_the_staple_port = {
		icon = mission_dominate_home_trade_node
		required_missions = { G48_war_with_the_merchants }
		position = 3
		
		provinces_to_highlight = {
		    province_id = 2738
		}
		
		trigger = {
		    treasury = 100
		    2738 = {
			    is_core = ROOT
				has_trade_building_trigger = yes
			}
		}
		
		effect = {
		    add_treasury = -100
            2738 = {
			    add_province_modifier = {
				name = kherka_staple_port
				duration = -1
				}
			}	
		}
	}
	
	G48_the_barbarian_forge = {
		icon = mission_smith
		required_missions = { G48_institute_of_prospectors
                              G48_fortify_our_flanks }
		position = 4
		
		trigger = {
		    is_neighbor_of = G63
		}
		
		effect = {
            add_casus_belli = {
                target = G63
                type = cb_vassalize_mission
			}
		}
	}
	
}

G48_expansion2 = {
	slot = 5
	generic = no
	ai = yes
	potential = {
		tag = G48
	}
	has_country_shield = yes
	
	G48_bolster_forces = {
		icon = mission_consolidate_the_state
		required_missions = { }
		#position = 1
		
		trigger = {
		    num_of_generals = 1
			army_size_percentage = 0.75
        }

        effect = { 
            2739 = { add_permanent_claim = ROOT }
			2738 = { add_permanent_claim = ROOT }
			2775 = { add_permanent_claim = ROOT }
			lokemeion_area = {
				limit = {
					NOT = { is_core = ROOT }
					NOT = { owned_by = ROOT }
				}
				add_permanent_claim = ROOT
			}
		}
	}
	
	G48_attack_the_scholars = {
		icon = mission_mounted_battle
		required_missions = { G48_bolster_forces }
		position = 2
		
		provinces_to_highlight = {
            area = lokemeion_area
			NOT = {
				country_or_non_sovereign_subject_holds = ROOT
			}
		}
		
		trigger = {
		    lokemeion_area = {
				type = all
				country_or_non_sovereign_subject_holds = ROOT
			}
        }
		
		effect = {
		    add_adm_power = 50
		}
	}
	
	G48_fortify_our_flanks = {
		icon = mission_portuguese_oman
		required_missions = { G48_war_with_the_merchants
                           	  G48_attack_the_scholars }
		position = 3
		
		provinces_to_highlight = {
			OR = {
				province_id = 2738
				province_id = 2778
			}
		}
		
		trigger = {
		    treasury = 300
			2738 = {
			    owned_by = ROOT
			}
			2778 = {
			    owned_by = ROOT
			}
		}

		effect = {
		    add_treasury = -300
			2738 = {
			    add_building = fort_16th
			}
			2778 = {
			    add_building = fort_16th
			}
		}
	}
}	