
namespace = escanni_wars

country_event = {
	id = escanni_wars.1
	title = "escanni_wars.1.t"
	picture = {	
		trigger = {
			has_dlc = "Emperor"
		}
		picture = ITALIAN_wars_eventPicture
	}
	picture = {	
		trigger = {
			NOT = { has_dlc = "Emperor" }
		}
		picture = MILITARY_CAMP_eventPicture
	}
	desc = "escanni_wars.1.d"
	
	major = yes
	fire_only_once = yes
	
	trigger = {
		current_age = age_of_absolutism
		NOT = { has_global_flag = escanni_wars_bypass }
		OR = {
			culture_group = escanni
			primary_culture = marrodic
			primary_culture = stone_dwarf
			primary_culture = iron_dwarf
			primary_culture = newfoot_halfling
		}
		capital_scope = {
			OR  = {
				region = south_castanor_region
				region = west_castanor_region
				region = inner_castanor_region
				area = cursewood_area
				area = whistlevale_area
			}
		}
		total_development = 150
		is_subject = no
		any_known_country = {
			OR = {
				culture_group = escanni
				primary_culture = marrodic
				primary_culture = stone_dwarf
				primary_culture = iron_dwarf
				primary_culture = newfoot_halfling
			}
			capital_scope = {
				OR  = {
					region = south_castanor_region
					region = west_castanor_region
					region = inner_castanor_region
					area = cursewood_area
					area = whistlevale_area
				}
			}
			total_development = 150
			is_subject = no
		}
	}
	
	mean_time_to_happen = {
		months = 3
	}
	
	option = {
		name = escanni_wars.1.a
		
		custom_tooltip = escanni_wars_tt
		set_global_flag = escanni_wars_global_flag
		hidden_effect = {
			every_country = {
				limit = {
					OR = {
						culture_group = escanni
						primary_culture = marrodic
						primary_culture = stone_dwarf
						primary_culture = iron_dwarf
						primary_culture = newfoot_halfling
					}
					capital_scope = {
						OR  = {
							region = south_castanor_region
							region = west_castanor_region
							region = inner_castanor_region
							area = cursewood_area
							area = whistlevale_area
						}
					}
				}
				country_event = { id = escanni_wars.100 }
			}
		}
	}
}

# End of the Escanni Wars of Consolidation
country_event = {
	id = escanni_wars.2
	title = "escanni_wars.2.t"
	picture = {	
		trigger = {
			has_dlc = "Emperor"
		}
		picture = ITALIAN_wars_eventPicture
	}
	picture = {	
		trigger = {
			NOT = { has_dlc = "Emperor" }
		}
		picture = MILITARY_CAMP_eventPicture
	}
	desc = {
		trigger = {
			has_saved_event_target = escanni_wars_victor
			has_country_flag = escanni_wars_complete_control
		}
		desc = escanni_wars.2.dcontrol
	}
	desc = {
		trigger = { has_saved_event_target = escanni_wars_victor }
		desc = escanni_wars.2.d
	}
	desc = {
		trigger = { NOT = { has_saved_event_target = escanni_wars_victor } }
		desc = escanni_wars.2.dunclear
	}
	
	major = yes
	
	fire_only_once = yes
	
	trigger = {
		has_global_flag = escanni_wars_global_flag
		OR = {
			had_global_flag = {
				flag = escanni_wars_global_flag
				days = 18250
			}
			AND = {
				south_castanor_region = {
					type = all
					country_or_non_sovereign_subject_holds = ROOT
				}
				west_castanor_region = {
					type = all
					country_or_non_sovereign_subject_holds = ROOT
				}
				inner_castanor_region = {
					type = all
					country_or_non_sovereign_subject_holds = ROOT
				}
				cursewood_area = {
					type = all
					country_or_non_sovereign_subject_holds = ROOT
				}
				whistlevale_area = {
					type = all
					country_or_non_sovereign_subject_holds = ROOT
				}
			}
		}
		OR = {
			culture_group = escanni
			primary_culture = marrodic
			primary_culture = stone_dwarf
			primary_culture = iron_dwarf
			primary_culture = newfoot_halfling
		}
		capital_scope = {
			OR  = {
				region = south_castanor_region
				region = west_castanor_region
				region = inner_castanor_region
				area = cursewood_area
				area = whistlevale_area
			}
		}
	}
	
	mean_time_to_happen = {
		months = 1
	}
	
	immediate = {
		if = {
			limit = {
				south_castanor_region = {
					type = all
					country_or_non_sovereign_subject_holds = ROOT
				}
				west_castanor_region = {
					type = all
					country_or_non_sovereign_subject_holds = ROOT
				}
				inner_castanor_region = {
					type = all
					country_or_non_sovereign_subject_holds = ROOT
				}
				cursewood_area = {
					type = all
					country_or_non_sovereign_subject_holds = ROOT
				}
				whistlevale_area = {
					type = all
					country_or_non_sovereign_subject_holds = ROOT
				}
			}
			set_country_flag = escanni_wars_complete_control
			save_event_target_as = escanni_wars_victor
		}
		else_if = {
			limit = {
				is_subject = no
				num_of_owned_provinces_with = {
					value = 100
					
					OR = {
						region = south_castanor_region
						region = west_castanor_region
						region = inner_castanor_region
						area = cursewood_area
						area = whistlevale_area
					}
				}
				#Own Castonath
				owns = 831
				owns = 832
				owns = 833
			}
			save_event_target_as = escanni_wars_victor
		}
		else = {
			random_country = {
				limit = {
					OR = {
						culture_group = escanni
						primary_culture = marrodic
						primary_culture = stone_dwarf
						primary_culture = iron_dwarf
						primary_culture = newfoot_halfling
					}
					capital_scope = {
						OR  = {
							region = south_castanor_region
							region = west_castanor_region
							region = inner_castanor_region
							area = cursewood_area
							area = whistlevale_area
						}
					}
					is_subject = no
					num_of_owned_provinces_with = {
						value = 100
						
						OR = {
							region = south_castanor_region
							region = west_castanor_region
							region = inner_castanor_region
							area = cursewood_area
							area = whistlevale_area
						}
					}
					#Own Castonath
					owns = 831
					owns = 832
					owns = 833
				}
				save_event_target_as = escanni_wars_victor
			}
		}
	}
	
	option = {
		name = escanni_wars.2.a
		
		custom_tooltip = escanni_wars_end_tt
		clr_global_flag = escanni_wars_global_flag
		set_global_flag = escanni_wars_end_global_flag
		clr_country_flag = escanni_wars_complete_control
		
		event_target:escanni_wars_victor = {
			country_event = { id = escanni_wars.10 days = 1 }
		}
	}
}

#Escanni Wars Bypass
country_event = {
	id = escanni_wars.3
	title = "escanni_wars.3.t"
	picture = {	
		trigger = {
			has_dlc = "Emperor"
		}
		picture = ITALIAN_wars_eventPicture
	}
	picture = {	
		trigger = {
			NOT = { has_dlc = "Emperor" }
		}
		picture = MILITARY_CAMP_eventPicture
	}
	desc = "escanni_wars.3.d"
	
	major = yes
	fire_only_once = yes
	
	trigger = {
		current_age = age_of_absolutism
		NOT = { has_global_flag = escanni_wars_global_flag }
		NOT = { has_global_flag = escanni_wars_end_global_flag }
		OR = {
			AND = {
				is_year = 1640
				NOT = { is_year = 1650 }
			}
			AND = {
				south_castanor_region = {
					type = all
					country_or_non_sovereign_subject_holds = ROOT
				}
				west_castanor_region = {
					type = all
					country_or_non_sovereign_subject_holds = ROOT
				}
				inner_castanor_region = {
					type = all
					country_or_non_sovereign_subject_holds = ROOT
				}
				cursewood_area = {
					type = all
					country_or_non_sovereign_subject_holds = ROOT
				}
				whistlevale_area = {
					type = all
					country_or_non_sovereign_subject_holds = ROOT
				}
			}
		}
		OR = {
			culture_group = escanni
			primary_culture = marrodic
			primary_culture = stone_dwarf
			primary_culture = iron_dwarf
			primary_culture = newfoot_halfling
		}
		capital_scope = {
			OR  = {
				region = south_castanor_region
				region = west_castanor_region
				region = inner_castanor_region
				area = cursewood_area
				area = whistlevale_area
			}
		}
		is_subject = no
		num_of_owned_provinces_with = {
			value = 100
			
			OR = {
				region = south_castanor_region
				region = west_castanor_region
				region = inner_castanor_region
				area = cursewood_area
				area = whistlevale_area
			}
		}
		#Own Castonath
		owns = 831
		owns = 832
		owns = 833
	}
	
	mean_time_to_happen = {
		months = 3
	}
	
	option = {
		name = escanni_wars.3.a
		
		set_global_flag = escanni_wars_bypass
		country_event = { id = escanni_wars.10 days = 1 }
	}
}

# Escanni Wars winner reward
country_event = {
	id = escanni_wars.10
	title = "escanni_wars.10.t"
	picture = {	
		trigger = {
			has_dlc = "Emperor"
		}
		picture = ITALIAN_wars_eventPicture
	}
	picture = {	
		trigger = {
			NOT = { has_dlc = "Emperor" }
		}
		picture = MILITARY_CAMP_eventPicture
	}
	desc = {
		trigger = { NOT = { has_global_flag = escanni_wars_bypass } }
		desc = escanni_wars.10.d
	}
	desc = {
		trigger = { has_global_flag = escanni_wars_bypass }
		desc = escanni_wars.10.dbypass
	}
	
	major = yes
	is_triggered_only = yes
	
	option = { #Empire of Anbennar: 11-19
		name = escanni_wars.10.a
		trigger = {
			religion_group = cannorian
			government = monarchy
			hre_size = 1
			is_emperor = no
		}
		
		custom_tooltip = usurp_emperorship_choice_tt
		set_country_flag = escanni_wars_usurp_emperorship
	}
	
	option = { #Castanor: 20-29
		name = escanni_wars.10.b
		trigger = {
			has_estate = estate_castonath_patricians
			840 = {
				has_province_modifier = castanorian_citadel
				owned_by = ROOT
				is_core = ROOT
			}
			OR = {
				culture_group = escanni
				culture_group = dostanorian_g
				culture = marrodic
			}
			NOT = { has_country_flag = formed_castanor_flag }
			NOT = { has_adventurer_reform = yes }
			NOT = { exists = B32 } #Castanor doesn't exist
			#NOT = { exists = Z34 } #Black Castanor doesn't exist
			#NOT = { tag = B33 } #Blademarches hate Castanor
			NOT = { tag = Z34 }	#Black Castanor cannot into Castanor
			NOT = { has_country_flag = orc_nation_formed }	#prevents orc formables from forming it
			
			OR = {
				ai = no
				is_playing_custom_nation = no
			}
			is_colonial_nation = no
			OR = {
				is_former_colonial_nation = no
				AND = {
					is_former_colonial_nation = yes
					ai = no
				}
			}
			normal_or_historical_nations = yes
		}
		if = {
			limit = { tag = B33 }
			custom_tooltip = no_more_blademarches_blade_tt
		}
		country_event = { id = escanni_wars.20 days = 30 }
	}
	
	option = { #Infernal Court: 30-39
		name = escanni_wars.10.c
		trigger = {
			always = no	#temporary disabled, remove this when Moredhal is ready
			has_reform = secret_societies_inf
		}
		set_country_flag = form_moredhal
	}
	
	option = { #Black Demesne: 40-49
		name = escanni_wars.10.e
		trigger = {
			AND = {
				OR = {
					tag = B54 #Esthil
					tag = Z37 #Covenblad
					tag = B48 #Ravenmarch
					has_ruler_modifier = witch_king_modifier
				}
				NOT = { exists = Z99 }
			}
		}
		# country_event = { id = escanni_wars.40 }
		custom_tooltip = escanni_wars_black_demesne_tooltip
		hidden_effect = { set_country_flag = can_form_bd }
	}
	
	option = { # Holy Empire of Corinsfall
		name = escanni_wars.10.f
		ai_chance = { factor = 1000 } # if by some unholy miracle ai corintar makes it here...
		trigger = {
			religion = corinite
			# despite the tooltip, consolidation reward only requires the last corintar mission
			# to be available, not necessarily taken (we show mercy if they forgot to click the
			# button, or if the escanni wars are bypassed entirely)
			AND = { 
				mission_completed = corintar_escann_restored
				mission_completed = corintar_the_reconciliation
				mission_completed = corintar_escann_defended
			}
		}
		
		# Name change
		override_country_name = CORINTAR_HOLY_EMPIRE
		
		# Add modifier
		hidden_effect = { remove_country_modifier = corintar_holy_empire_i }
		add_country_modifier = {
			name = corintar_holy_empire_ii
			duration = -1
		}
	}
	
	option = { #Generic Conquest
		name = escanni_wars.10.y
		
		add_country_modifier = {
			name = escanni_wars_escanni_imperialism
			duration = -1
		}
	}
	
	option = { #Generic Peace
		name = escanni_wars.10.z
		
		add_country_modifier = {
			name = escanni_wars_escanni_peace
			duration = -1
		}
	}
}

# Empire of Anbennar: 11-19 #
# Emperorship Usurped
country_event = {
	id = escanni_wars.11
	title = "escanni_wars.11.t"
	picture = HRE_eventPicture
	desc = "escanni_wars.11.d"
	
	major = yes
	is_triggered_only = yes
	
	# immediate = {
		# hidden_effect = { make_emperor = yes } #For some reason having it in immediate sometimes causes the EoA to be disbanded when fired by the peace treaty but not by console when fired in the same situation
	# }
	
	option = {
		name = escanni_wars.11.a
		
		#make_emperor = yes
		set_emperor = yes
		if = {
			limit = { NOT = { hre_reform_passed = emperor_erbkaisertum } }
			hre_inheritable = yes
			set_country_flag = usurp_emperorship_hereditary_flag
		}
		add_imperial_influence = 100
		add_country_modifier = {
			name = escanni_wars_escanni_emperor
			duration = -1
		}
	}
}

# Electors called into war
country_event = {
	id = escanni_wars.12
	title = "escanni_wars.12.t"
	picture = HRE_eventPicture
	desc = "escanni_wars.12.d"
	
	is_triggered_only = yes
	
	option = {
		name = escanni_wars.12.a
		ai_chance = { factor = 100 }
		
		add_prestige = 25
		join_all_defensive_wars_of = emperor
	}
	
	option = {
		name = escanni_wars.12.b
		ai_chance = { factor = 0 }
		
		add_prestige = -25
		add_legitimacy = -25
	}
}

# Castanor: 20-29 #
# A walk through Pantheonway + reflections on history of Castanor
country_event = {
	id = escanni_wars.20
	title = escanni_wars.20.t
	picture = 10_Jain_Estate_eventPicture
	desc = {
		trigger = { NOT = { has_global_flag = escanni_wars_bypass } }
		desc = escanni_wars.20.descWar
	}
	desc = {
		trigger = { has_global_flag = escanni_wars_bypass }
		desc = escanni_wars.20.descBypass
	}
	
	is_triggered_only = yes
	
	option = {
		name = escanni_wars.20.a
		add_country_modifier = {
			name = escanni_wars_reflecting_on_past_castans
			duration = -1
		}
		country_event = {
			id = escanni_wars.21
			days = 180
			random = 60
		}
	}
}
# Discovery that the Trials are still legit - pay some money and time to restore Trialmount so that the Trials can be taken again
country_event = {
	id = escanni_wars.21
	title = escanni_wars.21.t
	picture = COMET_SIGHTED_eventPicture
	desc = escanni_wars.21.desc
	
	is_triggered_only = yes
	
	option = {
		name = escanni_wars.21.a
		country_event = {
			id = escanni_wars.22
			days = 365
			random = 365
		}
		add_years_of_income = -0.5
	}
}
# Patricians object to your intentions to take the trials - this sets up later disaster
country_event = {
	id = escanni_wars.22
	title = escanni_wars.22.t
	picture = OPRICHINA_eventPicture
	desc = escanni_wars.22.desc
	
	is_triggered_only = yes
	
	option = {
		name = escanni_wars.22.a
		add_estate_loyalty = {
			estate = estate_castonath_patricians
			loyalty = -5
		}
		set_country_flag = escanni_wars_castanor_option_unlocked
		set_country_flag = first_time_trying_trials
		custom_tooltip = escanni_wars_form_castanor_unlocked_tt
		remove_country_modifier = escanni_wars_reflecting_on_past_castans
	}
}
# Infernal Court: 30-39 #
country_event = {
	id = escanni_wars.30
	title = escanni_wars.30.t
	picture = 10_Jain_Estate_eventPicture
	desc = escanni_wars.30.d
	
	is_triggered_only = yes
	
	option = {
		name = escanni_wars.30.a
		remove_government_reform = secret_societies_inf
		change_tag = B62
		add_government_reform = mystery_societies_inf
		hidden_effect = { restore_country_name = yes }
		custom_tooltip = tooltip_moredhalic_culture_provinces
		clr_country_flag = castonath_patricians_curtailing_relationship
		clr_country_flag = castonath_patricians_autonomous
		clr_country_flag = castonath_patricians_reinstated
		country_event = {
			id = castonath_patricians_events.69
			days = 7
		}
		hidden_effect = {
			every_owned_province = {
				limit = {
					has_owner_culture = yes
					owner = {
						culture_is_human = yes
					}
				}
				change_culture = moredhalic
			}
		}
		831 = {
			if =  { 
				limit = { owned_by = ROOT }
				remove_province_modifier = castonath_patrician_influence_full
				remove_province_modifier = castonath_patrician_influence_significant
				remove_province_modifier = castonath_patrician_influence_considerable
				remove_province_modifier = castonath_patrician_influence_some
				add_devastation = 50
			}
		}
		832 = {
			if =  { 
				limit = { owned_by = ROOT }
				remove_province_modifier = castonath_patrician_influence_full
				remove_province_modifier = castonath_patrician_influence_significant
				remove_province_modifier = castonath_patrician_influence_considerable
				remove_province_modifier = castonath_patrician_influence_some
				add_devastation = 50
			}
		}
		833 = {
			if =  { 
				limit = { owned_by = ROOT }
				remove_province_modifier = castonath_patrician_influence_full
				remove_province_modifier = castonath_patrician_influence_significant
				remove_province_modifier = castonath_patrician_influence_considerable
				remove_province_modifier = castonath_patrician_influence_some
				add_devastation = 50
			}
		}
		if = {
			limit = { ruler_culture = ROOT ruler_is_human = yes }
			set_ruler_culture = moredhalic
		}
		if = {
			limit = { has_heir = yes heir_culture = ROOT heir_is_human = yes }
			set_heir_culture = moredhalic
		}
		if = {
			limit = { has_consort = yes consort_culture = ROOT consort_is_human = yes }
			set_consort_culture = moredhalic
		}
		change_primary_culture = moredhalic
		remove_non_electors_emperors_from_empire_effect = yes
		swap_non_generic_missions = yes
		clr_country_flag = castonath_patricians_reinstated
		if = {
			limit = {
				NOT = { government_rank = 3 }
			}
			set_government_rank = 3
		}
		if = {
			limit = { has_custom_ideas = no }
			country_event = { id = ideagroups.1 } #Swap Ideas
		}
	}
}
# Black Demesne: 40-49 #


#Escann notification
country_event = {
	id = escanni_wars.100
	title = "escanni_wars.1.t"
	picture = {	
		trigger = {
			has_dlc = "Emperor"
		}
		picture = ITALIAN_wars_eventPicture
	}
	picture = {	
		trigger = {
			NOT = { has_dlc = "Emperor" }
		}
		picture = MILITARY_CAMP_eventPicture
	}
	desc = "escanni_wars.1.d"
	
	is_triggered_only = yes
	
	trigger = {
	}
	
	option = {
		name = escanni_wars.1.a
		
		custom_tooltip = escanni_wars_tt
	}
}