initialize_tyrant_system = {
	if = {
		limit = {
			OR = {
				AND = {
					tag = Z66
					was_tag = Y09
				}
				tag = Y09
			}
		}
		set_variable = { which = TyrantValue value = 0 }
	}
}

increase_tyrant_ruthless_3 = {
	if = {
        limit = {
            OR = {
                AND = {
                    tag = Z66
                    was_tag = Y09
                }
                tag = Y09
            }
        }
        custom_tooltip = increase_tyrant_ruthless_3_tooltip
        hidden_effect = {
            change_variable = { which = TyrantValue value = -3 }
            if = { limit = { NOT = { check_variable = { which = TyrantValue value = -7 } } }
                set_variable = { which = TyrantValue value = -7 }
            }
        }
		hidden_effect = {
			update_tyrant_modifier = yes
		}
    }
}

increase_tyrant_benevolent_3 = {
    if = {
        limit = {
            OR = {
                AND = {
                    tag = Z66
                    was_tag = Y09
                }
                tag = Y09
            }
        }
        custom_tooltip = increase_tyrant_benevolent_3_tooltip
        hidden_effect = {
            change_variable = { which = TyrantValue value = 3 }
            if = { limit = { check_variable = { which = TyrantValue value = 8 } }
                set_variable = { which = TyrantValue value = 7 }
            }
        }
		hidden_effect = {
			update_tyrant_modifier = yes
		}
    }
}

increase_tyrant_ruthless_2 = {
	if = {
        limit = {
            OR = {
                AND = {
                    tag = Z66
                    was_tag = Y09
                }
                tag = Y09
            }
        }
        custom_tooltip = increase_tyrant_ruthless_2_tooltip
        hidden_effect = {
            change_variable = { which = TyrantValue value = -2 }
            if = { limit = { NOT = { check_variable = { which = TyrantValue value = -7 } } }
                set_variable = { which = TyrantValue value = -7 }
            }
        }
		hidden_effect = {
			update_tyrant_modifier = yes
		}
    }
}

increase_tyrant_benevolent_2 = {
    if = {
        limit = {
            OR = {
                AND = {
                    tag = Z66
                    was_tag = Y09
                }
                tag = Y09
            }
        }
        custom_tooltip = increase_tyrant_benevolent_2_tooltip
        hidden_effect = {
            change_variable = { which = TyrantValue value = 2 }
            if = { limit = { check_variable = { which = TyrantValue value = 8 } }
                set_variable = { which = TyrantValue value = 7 }
            }
        }
		hidden_effect = {
			update_tyrant_modifier = yes
		}
    }
}

increase_tyrant_ruthless_1 = {
	if = {
        limit = {
            OR = {
                AND = {
                    tag = Z66
                    was_tag = Y09
                }
                tag = Y09
            }
        }
        custom_tooltip = increase_tyrant_ruthless_1_tooltip
        hidden_effect = {
            change_variable = { which = TyrantValue value = -1 }
            if = { limit = { NOT = { check_variable = { which = TyrantValue value = -7 } } }
                set_variable = { which = TyrantValue value = -7 }
            }
        }
		hidden_effect = {
			update_tyrant_modifier = yes
		}
    }
}

increase_tyrant_benevolent_1 = {
    if = {
        limit = {
            OR = {
                AND = {
                    tag = Z66
                    was_tag = Y09
                }
                tag = Y09
            }
        }
        custom_tooltip = increase_tyrant_benevolent_1_tooltip
        hidden_effect = {
            change_variable = { which = TyrantValue value = 1 }
            if = { limit = { check_variable = { which = TyrantValue value = 8 } }
                set_variable = { which = TyrantValue value = 7 }
            }
        }
		hidden_effect = {
			update_tyrant_modifier = yes
		}
    }
}

update_tyrant_modifier = {
	if = {
		limit = {
			OR = {
				AND = {
					tag = Z66
					was_tag = Y09
				}
				tag = Y09
			}
		}
		if = {
			limit = {
				AND = {
					NOT = { check_variable = { which = TyrantValue value = -2 } }
					NOT = { has_country_modifier = bianfang_tyrant_modifier_ruthless }
				}
			}
			country_event = { id = bianfang.8 }
		}
		else_if = {
			limit = {
				AND = {
					check_variable = { which = TyrantValue value = -2 }
					NOT = { check_variable = { which = TyrantValue value = 3 } }
					NOT = { has_country_modifier = bianfang_tyrant_modifier_pragmatic }
				}
			}
			country_event = { id = bianfang.9 }
		}
		else_if = {
			limit = {
				AND = {
					check_variable = { which = TyrantValue value = 3 }
					NOT = { has_country_modifier = bianfang_tyrant_modifier_benevolent }
				}
			}
			country_event = { id = bianfang.10 }
		}
	}
}

upgrade_yanification_effect = {
	if = {
		limit = {
			NOT = {
				OR = {
					has_country_flag = yanification_upgrade_1
					has_country_flag = yanification_upgrade_2
					has_country_flag = yanification_upgrade_3
					has_country_flag = yanification_upgrade_4
					has_country_flag = yanification_upgrade_5
					has_country_flag = yanification_upgrade_6
					has_country_flag = yanification_upgrade_7
				}
			}
		}
		set_country_flag = yanification_upgrade_1
	}
	else_if = {
		limit = {
			has_country_flag = yanification_upgrade_1
		}
		clr_country_flag = yanification_upgrade_1
		set_country_flag = yanification_upgrade_2
	}
	else_if = {
		limit = {
			has_country_flag = yanification_upgrade_2
		}
		clr_country_flag = yanification_upgrade_2
		set_country_flag = yanification_upgrade_3
	}
	else_if = {
		limit = {
			has_country_flag = yanification_upgrade_3
		}
		clr_country_flag = yanification_upgrade_3
		set_country_flag = yanification_upgrade_4
	}
	else_if = {
		limit = {
			has_country_flag = yanification_upgrade_4
		}
		clr_country_flag = yanification_upgrade_4
		set_country_flag = yanification_upgrade_5
	}
	else_if = {
		limit = {
			has_country_flag = yanification_upgrade_5
		}
		clr_country_flag = yanification_upgrade_5
		set_country_flag = yanification_upgrade_6
	}
	else_if = {
		limit = {
			has_country_flag = yanification_upgrade_6
		}
		clr_country_flag = yanification_upgrade_6
		set_country_flag = yanification_upgrade_7
	}
}
